^C:\DEV\GIT\KAMICHI2\3RDPARTY\PNG\LODEPNG.CPP
C:\DEV\GIT\KAMICHI2\PROJECT\KAMICHI2\X64\DEBUG\LODEPNG.OBJ
^C:\DEV\GIT\KAMICHI2\PROJECT\KAMICHI2\KAMCORE.CPP
C:\DEV\GIT\KAMICHI2\PROJECT\KAMICHI2\X64\DEBUG\KAMCORE.OBJ
^C:\DEV\GIT\KAMICHI2\PROJECT\KAMICHI2\KAMGAME.CPP
C:\DEV\GIT\KAMICHI2\PROJECT\KAMICHI2\X64\DEBUG\KAMGAME.OBJ
^C:\DEV\GIT\KAMICHI2\PROJECT\KAMICHI2\KAMCAMPAIGN.CPP
C:\DEV\GIT\KAMICHI2\PROJECT\KAMICHI2\X64\DEBUG\KAMCAMPAIGN.OBJ
^C:\DEV\GIT\KAMICHI2\PROJECT\KAMICHI2\KAMLEVEL.CPP
C:\DEV\GIT\KAMICHI2\PROJECT\KAMICHI2\X64\DEBUG\KAMLEVEL.OBJ
^C:\DEV\GIT\KAMICHI2\PROJECT\KAMICHI2\KAMICHI2.CPP
C:\DEV\GIT\KAMICHI2\PROJECT\KAMICHI2\X64\DEBUG\KAMICHI2.OBJ
^C:\DEV\GIT\KAMICHI2\PROJECT\KAMICHI2\KAMMENU.CPP
C:\DEV\GIT\KAMICHI2\PROJECT\KAMICHI2\X64\DEBUG\KAMMENU.OBJ
^C:\DEV\GIT\KAMICHI2\PROJECT\KAMICHI2\KAMSTARS.CPP
C:\DEV\GIT\KAMICHI2\PROJECT\KAMICHI2\X64\DEBUG\KAMSTARS.OBJ
^C:\DEV\GIT\KAMICHI2\PROJECT\KAMICHI2\KANIMSET.CPP
C:\DEV\GIT\KAMICHI2\PROJECT\KAMICHI2\X64\DEBUG\KANIMSET.OBJ
^C:\DEV\GIT\KAMICHI2\PROJECT\KAMICHI2\KAMLOGOS.CPP
C:\DEV\GIT\KAMICHI2\PROJECT\KAMICHI2\X64\DEBUG\KAMLOGOS.OBJ
^C:\DEV\GIT\KAMICHI2\PROJECT\KAMICHI2\KFRAMEBUFFER.CPP
C:\DEV\GIT\KAMICHI2\PROJECT\KAMICHI2\X64\DEBUG\KFRAMEBUFFER.OBJ
^C:\DEV\GIT\KAMICHI2\PROJECT\KAMICHI2\KAMSTATE.CPP
C:\DEV\GIT\KAMICHI2\PROJECT\KAMICHI2\X64\DEBUG\KAMSTATE.OBJ
^C:\DEV\GIT\KAMICHI2\PROJECT\KAMICHI2\KEFFECT.CPP
C:\DEV\GIT\KAMICHI2\PROJECT\KAMICHI2\X64\DEBUG\KEFFECT.OBJ
^C:\DEV\GIT\KAMICHI2\PROJECT\KAMICHI2\KELECTRICFX.CPP
C:\DEV\GIT\KAMICHI2\PROJECT\KAMICHI2\X64\DEBUG\KELECTRICFX.OBJ
^C:\DEV\GIT\KAMICHI2\PROJECT\KAMICHI2\KFONT.CPP
C:\DEV\GIT\KAMICHI2\PROJECT\KAMICHI2\X64\DEBUG\KFONT.OBJ
^C:\DEV\GIT\KAMICHI2\PROJECT\KAMICHI2\KIMAGE.CPP
C:\DEV\GIT\KAMICHI2\PROJECT\KAMICHI2\X64\DEBUG\KIMAGE.OBJ
^C:\DEV\GIT\KAMICHI2\PROJECT\KAMICHI2\KPATH.CPP
C:\DEV\GIT\KAMICHI2\PROJECT\KAMICHI2\X64\DEBUG\KPATH.OBJ
^C:\DEV\GIT\KAMICHI2\PROJECT\KAMICHI2\KGLOBAL.CPP
C:\DEV\GIT\KAMICHI2\PROJECT\KAMICHI2\X64\DEBUG\KGLOBAL.OBJ
^C:\DEV\GIT\KAMICHI2\PROJECT\KAMICHI2\KLIGHT.CPP
C:\DEV\GIT\KAMICHI2\PROJECT\KAMICHI2\X64\DEBUG\KLIGHT.OBJ
^C:\DEV\GIT\KAMICHI2\PROJECT\KAMICHI2\KPARTICLESYS.CPP
C:\DEV\GIT\KAMICHI2\PROJECT\KAMICHI2\X64\DEBUG\KPARTICLESYS.OBJ
^C:\DEV\GIT\KAMICHI2\PROJECT\KAMICHI2\KSOUND.CPP
C:\DEV\GIT\KAMICHI2\PROJECT\KAMICHI2\X64\DEBUG\KSOUND.OBJ
^C:\DEV\GIT\KAMICHI2\PROJECT\KAMICHI2\KOBJ.CPP
C:\DEV\GIT\KAMICHI2\PROJECT\KAMICHI2\X64\DEBUG\KOBJ.OBJ
^C:\DEV\GIT\KAMICHI2\PROJECT\KAMICHI2\KSOUNDSOURCE.CPP
C:\DEV\GIT\KAMICHI2\PROJECT\KAMICHI2\X64\DEBUG\KSOUNDSOURCE.OBJ
^C:\DEV\GIT\KAMICHI2\PROJECT\KAMICHI2\KPOSTPROCESS.CPP
C:\DEV\GIT\KAMICHI2\PROJECT\KAMICHI2\X64\DEBUG\KPOSTPROCESS.OBJ
^C:\DEV\GIT\KAMICHI2\PROJECT\KAMICHI2\KSCENE.CPP
C:\DEV\GIT\KAMICHI2\PROJECT\KAMICHI2\X64\DEBUG\KSCENE.OBJ
^C:\DEV\GIT\KAMICHI2\PROJECT\KAMICHI2\PMETALCHUNK.CPP
C:\DEV\GIT\KAMICHI2\PROJECT\KAMICHI2\X64\DEBUG\PMETALCHUNK.OBJ
^C:\DEV\GIT\KAMICHI2\PROJECT\KAMICHI2\OBJLASERBOLT.CPP
C:\DEV\GIT\KAMICHI2\PROJECT\KAMICHI2\X64\DEBUG\OBJLASERBOLT.OBJ
^C:\DEV\GIT\KAMICHI2\PROJECT\KAMICHI2\LEVTHEWARBEGINS.CPP
C:\DEV\GIT\KAMICHI2\PROJECT\KAMICHI2\X64\DEBUG\LEVTHEWARBEGINS.OBJ
^C:\DEV\GIT\KAMICHI2\PROJECT\KAMICHI2\OBJPLAYER.CPP
C:\DEV\GIT\KAMICHI2\PROJECT\KAMICHI2\X64\DEBUG\OBJPLAYER.OBJ
^C:\DEV\GIT\KAMICHI2\PROJECT\KAMICHI2\OBJSHIPMINE.CPP
C:\DEV\GIT\KAMICHI2\PROJECT\KAMICHI2\X64\DEBUG\OBJSHIPMINE.OBJ
^C:\DEV\GIT\KAMICHI2\PROJECT\KAMICHI2\PPBLOOM.CPP
C:\DEV\GIT\KAMICHI2\PROJECT\KAMICHI2\X64\DEBUG\PPBLOOM.OBJ
^C:\DEV\GIT\KAMICHI2\PROJECT\KAMICHI2\PPDEFORMER.CPP
C:\DEV\GIT\KAMICHI2\PROJECT\KAMICHI2\X64\DEBUG\PPDEFORMER.OBJ
^C:\DEV\GIT\KAMICHI2\PROJECT\KAMICHI2\STATELEVELINTRO.CPP
C:\DEV\GIT\KAMICHI2\PROJECT\KAMICHI2\X64\DEBUG\STATELEVELINTRO.OBJ
^C:\DEV\GIT\KAMICHI2\PROJECT\KAMICHI2\STATENORMALMODE.CPP
C:\DEV\GIT\KAMICHI2\PROJECT\KAMICHI2\X64\DEBUG\STATENORMALMODE.OBJ
