import brl.blitz
import brl.appstub
import brl.audio
import brl.bank
import brl.bankstream
import brl.base64
import brl.basic
import brl.bmploader
import brl.clipboard
import brl.collections
import brl.crypto
import brl.d3d7max2d
import brl.d3d9max2d
import brl.data
import brl.directsoundaudio
import brl.eventqueue
import brl.freeaudioaudio
import brl.freetypefont
import brl.glgraphics
import brl.glmax2d
import brl.gnet
import brl.jpgloader
import brl.json
import brl.map
import brl.matrix
import brl.maxlua
import brl.maxutil
import brl.oggloader
import brl.openalaudio
import brl.pngloader
import brl.quaternion
import brl.retro
import brl.tgaloader
import brl.threadpool
import brl.timer
import brl.timerdefault
import brl.volumes
import brl.wavloader
import brl.xml
import pub.freejoy
import pub.freeprocess
import pub.glad
import pub.macos
import pub.nx
import pub.opengles
import pub.vulkan
import pub.xmmintrin